{
    "version": "3.16.7",
    "flags": {},
    "shapes": [
        {
            "label": "daphnia",
            "line_color": null,
            "fill_color": null,
            "points": [
                [
                    255.9310344827586,
                    216.93103448275863
                ],
                [
                    251.79310344827587,
                    219.0
                ],
                [
                    254.55172413793105,
                    225.89655172413794
                ],
                [
                    265.58620689655174,
                    228.6551724137931
                ],
                [
                    262.1379310344828,
                    220.3793103448276
                ]
            ],
            "shape_type": "polygon",
            "flags": {}
        },
        {
            "label": "daphnia",
            "line_color": null,
            "fill_color": null,
            "points": [
                [
                    335.2413793103448,
                    94.17241379310344
                ],
                [
                    343.51724137931035,
                    92.79310344827587
                ],
                [
                    342.82758620689657,
                    86.58620689655173
                ],
                [
                    339.3793103448276,
                    81.06896551724138
                ],
                [
                    332.48275862068965,
                    83.82758620689656
                ],
                [
                    331.7931034482759,
                    87.96551724137932
                ]
            ],
            "shape_type": "polygon",
            "flags": {}
        },
        {
            "label": "daphnia",
            "line_color": null,
            "fill_color": null,
            "points": [
                [
                    124.89655172413794,
                    88.65517241379311
                ],
                [
                    131.79310344827587,
                    88.65517241379311
                ],
                [
                    131.10344827586206,
                    77.62068965517241
                ],
                [
                    123.51724137931035,
                    73.48275862068965
                ],
                [
                    122.13793103448276,
                    81.06896551724138
                ]
            ],
            "shape_type": "polygon",
            "flags": {}
        },
        {
            "label": "daphnia",
            "line_color": null,
            "fill_color": null,
            "points": [
                [
                    771.7931034482758,
                    59.689655172413794
                ],
                [
                    778.6896551724138,
                    58.310344827586206
                ],
                [
                    780.7586206896551,
                    50.724137931034484
                ],
                [
                    780.7586206896551,
                    45.896551724137936
                ],
                [
                    772.4827586206897,
                    46.58620689655172
                ],
                [
                    772.4827586206897,
                    51.41379310344828
                ]
            ],
            "shape_type": "polygon",
            "flags": {}
        },
        {
            "label": "daphnia",
            "line_color": null,
            "fill_color": null,
            "points": [
                [
                    868.3448275862069,
                    58.310344827586206
                ],
                [
                    875.2413793103449,
                    57.62068965517241
                ],
                [
                    878.6896551724138,
                    52.10344827586207
                ],
                [
                    878.0,
                    45.896551724137936
                ],
                [
                    871.1034482758621,
                    47.96551724137931
                ],
                [
                    866.9655172413793,
                    50.724137931034484
                ]
            ],
            "shape_type": "polygon",
            "flags": {}
        },
        {
            "label": "daphnia",
            "line_color": null,
            "fill_color": null,
            "points": [
                [
                    1155.9310344827586,
                    111.41379310344828
                ],
                [
                    1162.1379310344828,
                    105.89655172413794
                ],
                [
                    1162.1379310344828,
                    99.6896551724138
                ],
                [
                    1157.3103448275863,
                    95.55172413793103
                ],
                [
                    1153.1724137931035,
                    99.6896551724138
                ],
                [
                    1153.1724137931035,
                    104.51724137931035
                ]
            ],
            "shape_type": "polygon",
            "flags": {}
        },
        {
            "label": "daphnia",
            "line_color": null,
            "fill_color": null,
            "points": [
                [
                    1181.4482758620688,
                    111.41379310344828
                ],
                [
                    1182.8275862068965,
                    103.82758620689656
                ],
                [
                    1179.3793103448274,
                    97.62068965517241
                ],
                [
                    1173.1724137931035,
                    100.37931034482759
                ],
                [
                    1173.1724137931035,
                    108.65517241379311
                ]
            ],
            "shape_type": "polygon",
            "flags": {}
        },
        {
            "label": "daphnia",
            "line_color": null,
            "fill_color": null,
            "points": [
                [
                    1115.2413793103449,
                    183.82758620689657
                ],
                [
                    1115.2413793103449,
                    176.24137931034483
                ],
                [
                    1109.0344827586207,
                    173.48275862068965
                ],
                [
                    1104.896551724138,
                    176.24137931034483
                ],
                [
                    1106.9655172413793,
                    181.0689655172414
                ]
            ],
            "shape_type": "polygon",
            "flags": {}
        },
        {
            "label": "daphnia",
            "line_color": null,
            "fill_color": null,
            "points": [
                [
                    1148.344827586207,
                    381.7586206896552
                ],
                [
                    1146.2758620689656,
                    377.62068965517244
                ],
                [
                    1139.3793103448277,
                    373.48275862068965
                ],
                [
                    1135.9310344827586,
                    376.2413793103448
                ],
                [
                    1141.4482758620688,
                    383.1379310344828
                ]
            ],
            "shape_type": "polygon",
            "flags": {}
        },
        {
            "label": "daphnia",
            "line_color": null,
            "fill_color": null,
            "points": [
                [
                    864.8965517241379,
                    492.1034482758621
                ],
                [
                    862.8275862068965,
                    486.58620689655174
                ],
                [
                    857.3103448275863,
                    483.1379310344828
                ],
                [
                    853.8620689655172,
                    487.2758620689655
                ],
                [
                    857.3103448275863,
                    490.7241379310345
                ]
            ],
            "shape_type": "polygon",
            "flags": {}
        },
        {
            "label": "daphnia",
            "line_color": null,
            "fill_color": null,
            "points": [
                [
                    131.79310344827587,
                    590.3103448275862
                ],
                [
                    134.55172413793105,
                    584.1034482758621
                ],
                [
                    135.24137931034483,
                    576.5172413793103
                ],
                [
                    127.65517241379311,
                    578.5862068965517
                ],
                [
                    126.9655172413793,
                    584.1034482758621
                ]
            ],
            "shape_type": "polygon",
            "flags": {}
        },
        {
            "label": "daphnia",
            "line_color": null,
            "fill_color": null,
            "points": [
                [
                    127.65517241379311,
                    584.1034482758621
                ],
                [
                    123.51724137931035,
                    578.5862068965517
                ],
                [
                    118.6896551724138,
                    579.2758620689656
                ],
                [
                    118.0,
                    587.551724137931
                ],
                [
                    126.27586206896552,
                    593.0689655172414
                ]
            ],
            "shape_type": "polygon",
            "flags": {}
        },
        {
            "label": "daphnia",
            "line_color": null,
            "fill_color": null,
            "points": [
                [
                    138.6896551724138,
                    613.7586206896551
                ],
                [
                    143.51724137931035,
                    606.8620689655172
                ],
                [
                    144.20689655172416,
                    602.0344827586207
                ],
                [
                    140.75862068965517,
                    596.5172413793103
                ],
                [
                    134.55172413793105,
                    601.3448275862069
                ],
                [
                    133.86206896551724,
                    608.2413793103449
                ]
            ],
            "shape_type": "polygon",
            "flags": {}
        },
        {
            "label": "daphnia",
            "line_color": null,
            "fill_color": null,
            "points": [
                [
                    131.79310344827587,
                    654.448275862069
                ],
                [
                    135.24137931034483,
                    647.551724137931
                ],
                [
                    133.86206896551724,
                    642.7241379310344
                ],
                [
                    131.10344827586206,
                    639.9655172413793
                ],
                [
                    126.9655172413793,
                    644.7931034482758
                ],
                [
                    125.58620689655173,
                    648.2413793103449
                ]
            ],
            "shape_type": "polygon",
            "flags": {}
        },
        {
            "label": "daphnia",
            "line_color": null,
            "fill_color": null,
            "points": [
                [
                    115.24137931034483,
                    693.7586206896551
                ],
                [
                    115.93103448275862,
                    687.551724137931
                ],
                [
                    114.55172413793103,
                    683.4137931034483
                ],
                [
                    109.0344827586207,
                    678.5862068965517
                ],
                [
                    106.96551724137932,
                    686.1724137931035
                ]
            ],
            "shape_type": "polygon",
            "flags": {}
        },
        {
            "label": "daphnia",
            "line_color": null,
            "fill_color": null,
            "points": [
                [
                    134.55172413793105,
                    799.2758620689656
                ],
                [
                    138.0,
                    793.0689655172414
                ],
                [
                    133.86206896551724,
                    790.3103448275863
                ],
                [
                    127.65517241379311,
                    791.6896551724137
                ],
                [
                    127.65517241379311,
                    796.5172413793103
                ]
            ],
            "shape_type": "polygon",
            "flags": {}
        },
        {
            "label": "daphnia",
            "line_color": null,
            "fill_color": null,
            "points": [
                [
                    316.62068965517244,
                    585.4827586206897
                ],
                [
                    309.0344827586207,
                    586.8620689655172
                ],
                [
                    305.58620689655174,
                    591.0
                ],
                [
                    306.2758620689655,
                    597.2068965517242
                ],
                [
                    313.86206896551727,
                    595.1379310344828
                ]
            ],
            "shape_type": "polygon",
            "flags": {}
        },
        {
            "label": "daphnia",
            "line_color": null,
            "fill_color": null,
            "points": [
                [
                    266.2758620689655,
                    728.2413793103449
                ],
                [
                    262.82758620689657,
                    722.7241379310344
                ],
                [
                    252.48275862068965,
                    721.3448275862069
                ],
                [
                    255.24137931034483,
                    729.6206896551724
                ]
            ],
            "shape_type": "polygon",
            "flags": {}
        },
        {
            "label": "daphnia",
            "line_color": null,
            "fill_color": null,
            "points": [
                [
                    262.1379310344828,
                    771.6896551724137
                ],
                [
                    269.0344827586207,
                    767.551724137931
                ],
                [
                    268.3448275862069,
                    761.344827586207
                ],
                [
                    260.7586206896552,
                    760.6551724137931
                ],
                [
                    258.0,
                    764.7931034482758
                ]
            ],
            "shape_type": "polygon",
            "flags": {}
        },
        {
            "label": "daphnia",
            "line_color": null,
            "fill_color": null,
            "points": [
                [
                    168.3448275862069,
                    831.6896551724137
                ],
                [
                    173.86206896551724,
                    825.4827586206897
                ],
                [
                    171.79310344827587,
                    817.8965517241379
                ],
                [
                    164.89655172413794,
                    823.4137931034484
                ]
            ],
            "shape_type": "polygon",
            "flags": {}
        },
        {
            "label": "daphnia",
            "line_color": null,
            "fill_color": null,
            "points": [
                [
                    164.89655172413794,
                    867.551724137931
                ],
                [
                    172.48275862068965,
                    870.3103448275863
                ],
                [
                    176.6206896551724,
                    864.7931034482758
                ],
                [
                    171.10344827586206,
                    859.9655172413793
                ]
            ],
            "shape_type": "polygon",
            "flags": {}
        },
        {
            "label": "daphnia",
            "line_color": null,
            "fill_color": null,
            "points": [
                [
                    202.82758620689657,
                    872.3793103448277
                ],
                [
                    209.72413793103448,
                    873.0689655172414
                ],
                [
                    210.41379310344828,
                    869.6206896551724
                ],
                [
                    207.6551724137931,
                    864.7931034482758
                ],
                [
                    202.13793103448276,
                    864.7931034482758
                ]
            ],
            "shape_type": "polygon",
            "flags": {}
        },
        {
            "label": "daphnia",
            "line_color": null,
            "fill_color": null,
            "points": [
                [
                    486.2758620689655,
                    587.551724137931
                ],
                [
                    481.44827586206895,
                    588.2413793103449
                ],
                [
                    482.1379310344828,
                    597.2068965517242
                ],
                [
                    493.1724137931035,
                    599.9655172413793
                ]
            ],
            "shape_type": "polygon",
            "flags": {}
        },
        {
            "label": "daphnia",
            "line_color": null,
            "fill_color": null,
            "points": [
                [
                    228.3448275862069,
                    971.6896551724137
                ],
                [
                    239.3793103448276,
                    968.9310344827586
                ],
                [
                    242.82758620689657,
                    962.7241379310344
                ],
                [
                    239.3793103448276,
                    959.9655172413793
                ],
                [
                    231.79310344827587,
                    961.344827586207
                ]
            ],
            "shape_type": "polygon",
            "flags": {}
        },
        {
            "label": "daphnia",
            "line_color": null,
            "fill_color": null,
            "points": [
                [
                    541.448275862069,
                    891.0
                ],
                [
                    546.9655172413793,
                    893.0689655172414
                ],
                [
                    549.0344827586207,
                    887.551724137931
                ],
                [
                    547.6551724137931,
                    880.6551724137931
                ],
                [
                    540.0689655172414,
                    877.8965517241379
                ],
                [
                    538.6896551724138,
                    882.7241379310344
                ]
            ],
            "shape_type": "polygon",
            "flags": {}
        },
        {
            "label": "daphnia",
            "line_color": null,
            "fill_color": null,
            "points": [
                [
                    1185.5862068965516,
                    555.1379310344828
                ],
                [
                    1195.2413793103449,
                    555.1379310344828
                ],
                [
                    1196.6206896551726,
                    546.1724137931035
                ],
                [
                    1193.1724137931035,
                    544.7931034482758
                ],
                [
                    1188.344827586207,
                    548.2413793103449
                ]
            ],
            "shape_type": "polygon",
            "flags": {}
        },
        {
            "label": "daphnia",
            "line_color": null,
            "fill_color": null,
            "points": [
                [
                    1037.3103448275863,
                    580.6551724137931
                ],
                [
                    1043.5172413793102,
                    577.8965517241379
                ],
                [
                    1044.2068965517242,
                    568.2413793103449
                ],
                [
                    1040.7586206896551,
                    568.2413793103449
                ],
                [
                    1034.5517241379312,
                    573.7586206896551
                ]
            ],
            "shape_type": "polygon",
            "flags": {}
        },
        {
            "label": "daphnia",
            "line_color": null,
            "fill_color": null,
            "points": [
                [
                    815.2413793103449,
                    603.4137931034483
                ],
                [
                    816.6206896551724,
                    595.1379310344828
                ],
                [
                    809.7241379310344,
                    590.3103448275862
                ],
                [
                    808.3448275862069,
                    597.2068965517242
                ],
                [
                    808.3448275862069,
                    599.2758620689656
                ]
            ],
            "shape_type": "polygon",
            "flags": {}
        },
        {
            "label": "daphnia",
            "line_color": null,
            "fill_color": null,
            "points": [
                [
                    1186.9655172413793,
                    631.6896551724138
                ],
                [
                    1193.8620689655172,
                    628.9310344827586
                ],
                [
                    1196.6206896551726,
                    621.3448275862069
                ],
                [
                    1191.7931034482758,
                    619.9655172413793
                ],
                [
                    1186.2758620689656,
                    623.4137931034483
                ]
            ],
            "shape_type": "polygon",
            "flags": {}
        },
        {
            "label": "daphnia",
            "line_color": null,
            "fill_color": null,
            "points": [
                [
                    1151.103448275862,
                    633.0689655172414
                ],
                [
                    1157.3103448275863,
                    632.3793103448276
                ],
                [
                    1158.689655172414,
                    623.4137931034483
                ],
                [
                    1153.8620689655172,
                    621.3448275862069
                ],
                [
                    1149.7241379310344,
                    623.4137931034483
                ]
            ],
            "shape_type": "polygon",
            "flags": {}
        },
        {
            "label": "daphnia",
            "line_color": null,
            "fill_color": null,
            "points": [
                [
                    1175.9310344827586,
                    666.1724137931035
                ],
                [
                    1180.7586206896553,
                    659.9655172413793
                ],
                [
                    1181.4482758620688,
                    655.1379310344828
                ],
                [
                    1178.689655172414,
                    650.3103448275863
                ],
                [
                    1172.4827586206898,
                    655.8275862068965
                ],
                [
                    1172.4827586206898,
                    659.9655172413793
                ]
            ],
            "shape_type": "polygon",
            "flags": {}
        },
        {
            "label": "daphnia",
            "line_color": null,
            "fill_color": null,
            "points": [
                [
                    1169.0344827586207,
                    703.4137931034483
                ],
                [
                    1175.2413793103449,
                    700.6551724137931
                ],
                [
                    1178.689655172414,
                    693.0689655172414
                ],
                [
                    1170.4137931034484,
                    691.6896551724138
                ],
                [
                    1168.344827586207,
                    695.8275862068965
                ]
            ],
            "shape_type": "polygon",
            "flags": {}
        },
        {
            "label": "daphnia",
            "line_color": null,
            "fill_color": null,
            "points": [
                [
                    1144.2068965517242,
                    713.0689655172414
                ],
                [
                    1153.8620689655172,
                    711.6896551724138
                ],
                [
                    1157.3103448275863,
                    704.1034482758621
                ],
                [
                    1150.4137931034484,
                    704.1034482758621
                ]
            ],
            "shape_type": "polygon",
            "flags": {}
        },
        {
            "label": "daphnia",
            "line_color": null,
            "fill_color": null,
            "points": [
                [
                    1149.7241379310344,
                    725.4827586206897
                ],
                [
                    1153.1724137931035,
                    718.5862068965517
                ],
                [
                    1153.1724137931035,
                    714.448275862069
                ],
                [
                    1149.0344827586207,
                    711.6896551724138
                ],
                [
                    1144.896551724138,
                    713.0689655172414
                ],
                [
                    1145.5862068965516,
                    718.5862068965517
                ]
            ],
            "shape_type": "polygon",
            "flags": {}
        },
        {
            "label": "daphnia",
            "line_color": null,
            "fill_color": null,
            "points": [
                [
                    904.8965517241379,
                    772.3793103448277
                ],
                [
                    904.8965517241379,
                    761.344827586207
                ],
                [
                    897.3103448275863,
                    759.2758620689656
                ],
                [
                    896.6206896551724,
                    766.1724137931035
                ]
            ],
            "shape_type": "polygon",
            "flags": {}
        },
        {
            "label": "daphnia",
            "line_color": null,
            "fill_color": null,
            "points": [
                [
                    947.6551724137931,
                    808.2413793103449
                ],
                [
                    953.1724137931035,
                    814.448275862069
                ],
                [
                    960.7586206896551,
                    815.8275862068965
                ],
                [
                    964.2068965517242,
                    808.2413793103449
                ],
                [
                    956.6206896551724,
                    805.4827586206897
                ]
            ],
            "shape_type": "polygon",
            "flags": {}
        },
        {
            "label": "daphnia",
            "line_color": null,
            "fill_color": null,
            "points": [
                [
                    1178.0,
                    746.1724137931035
                ],
                [
                    1186.9655172413793,
                    744.7931034482758
                ],
                [
                    1187.655172413793,
                    735.8275862068965
                ],
                [
                    1180.7586206896553,
                    733.0689655172414
                ]
            ],
            "shape_type": "polygon",
            "flags": {}
        },
        {
            "label": "daphnia",
            "line_color": null,
            "fill_color": null,
            "points": [
                [
                    1178.689655172414,
                    766.1724137931035
                ],
                [
                    1187.655172413793,
                    763.4137931034483
                ],
                [
                    1186.2758620689656,
                    754.448275862069
                ],
                [
                    1180.0689655172414,
                    754.448275862069
                ]
            ],
            "shape_type": "polygon",
            "flags": {}
        },
        {
            "label": "daphnia",
            "line_color": null,
            "fill_color": null,
            "points": [
                [
                    1184.896551724138,
                    774.448275862069
                ],
                [
                    1191.103448275862,
                    771.0
                ],
                [
                    1192.4827586206898,
                    765.4827586206897
                ],
                [
                    1186.9655172413793,
                    764.7931034482758
                ],
                [
                    1183.5172413793102,
                    766.8620689655172
                ]
            ],
            "shape_type": "polygon",
            "flags": {}
        },
        {
            "label": "daphnia",
            "line_color": null,
            "fill_color": null,
            "points": [
                [
                    1150.4137931034484,
                    804.7931034482758
                ],
                [
                    1147.655172413793,
                    793.7586206896551
                ],
                [
                    1139.3793103448277,
                    801.344827586207
                ]
            ],
            "shape_type": "polygon",
            "flags": {}
        },
        {
            "label": "daphnia",
            "line_color": null,
            "fill_color": null,
            "points": [
                [
                    1176.6206896551726,
                    839.2758620689656
                ],
                [
                    1176.6206896551726,
                    831.6896551724137
                ],
                [
                    1173.8620689655172,
                    825.4827586206897
                ],
                [
                    1169.0344827586207,
                    828.9310344827586
                ],
                [
                    1170.4137931034484,
                    835.8275862068965
                ]
            ],
            "shape_type": "polygon",
            "flags": {}
        },
        {
            "label": "daphnia",
            "line_color": null,
            "fill_color": null,
            "points": [
                [
                    1175.2413793103449,
                    824.1034482758621
                ],
                [
                    1173.8620689655172,
                    820.6551724137931
                ],
                [
                    1165.5862068965516,
                    822.7241379310344
                ],
                [
                    1162.8275862068965,
                    826.8620689655172
                ],
                [
                    1168.344827586207,
                    828.2413793103449
                ]
            ],
            "shape_type": "polygon",
            "flags": {}
        },
        {
            "label": "daphnia",
            "line_color": null,
            "fill_color": null,
            "points": [
                [
                    1175.9310344827586,
                    853.7586206896551
                ],
                [
                    1182.1379310344828,
                    851.0
                ],
                [
                    1180.7586206896553,
                    839.9655172413793
                ],
                [
                    1173.8620689655172,
                    839.9655172413793
                ],
                [
                    1173.1724137931035,
                    846.1724137931035
                ]
            ],
            "shape_type": "polygon",
            "flags": {}
        },
        {
            "label": "daphnia",
            "line_color": null,
            "fill_color": null,
            "points": [
                [
                    1168.344827586207,
                    864.1034482758621
                ],
                [
                    1172.4827586206898,
                    859.2758620689656
                ],
                [
                    1170.4137931034484,
                    852.3793103448277
                ],
                [
                    1165.5862068965516,
                    852.3793103448277
                ],
                [
                    1165.5862068965516,
                    857.2068965517242
                ]
            ],
            "shape_type": "polygon",
            "flags": {}
        },
        {
            "label": "daphnia",
            "line_color": null,
            "fill_color": null,
            "points": [
                [
                    1134.5517241379312,
                    827.551724137931
                ],
                [
                    1142.1379310344828,
                    823.4137931034484
                ],
                [
                    1143.5172413793102,
                    818.5862068965517
                ],
                [
                    1134.5517241379312,
                    817.2068965517242
                ]
            ],
            "shape_type": "polygon",
            "flags": {}
        },
        {
            "label": "daphnia",
            "line_color": null,
            "fill_color": null,
            "points": [
                [
                    1126.9655172413793,
                    831.6896551724137
                ],
                [
                    1124.2068965517242,
                    822.0344827586207
                ],
                [
                    1118.0,
                    818.5862068965517
                ],
                [
                    1114.5517241379312,
                    824.1034482758621
                ],
                [
                    1118.689655172414,
                    828.9310344827586
                ]
            ],
            "shape_type": "polygon",
            "flags": {}
        },
        {
            "label": "daphnia",
            "line_color": null,
            "fill_color": null,
            "points": [
                [
                    1149.7241379310344,
                    843.4137931034484
                ],
                [
                    1150.4137931034484,
                    851.6896551724137
                ],
                [
                    1154.5517241379312,
                    857.2068965517242
                ],
                [
                    1160.7586206896553,
                    850.3103448275863
                ]
            ],
            "shape_type": "polygon",
            "flags": {}
        },
        {
            "label": "daphnia",
            "line_color": null,
            "fill_color": null,
            "points": [
                [
                    1065.5862068965516,
                    827.551724137931
                ],
                [
                    1059.3793103448277,
                    835.8275862068965
                ],
                [
                    1066.9655172413793,
                    844.1034482758621
                ],
                [
                    1069.7241379310344,
                    833.7586206896551
                ]
            ],
            "shape_type": "polygon",
            "flags": {}
        },
        {
            "label": "daphnia",
            "line_color": null,
            "fill_color": null,
            "points": [
                [
                    1097.3103448275863,
                    869.6206896551724
                ],
                [
                    1091.7931034482758,
                    871.6896551724137
                ],
                [
                    1099.3793103448277,
                    877.2068965517242
                ],
                [
                    1105.5862068965516,
                    877.2068965517242
                ],
                [
                    1106.9655172413793,
                    871.0
                ]
            ],
            "shape_type": "polygon",
            "flags": {}
        },
        {
            "label": "daphnia",
            "line_color": null,
            "fill_color": null,
            "points": [
                [
                    1137.3103448275863,
                    893.0689655172414
                ],
                [
                    1138.689655172414,
                    885.4827586206897
                ],
                [
                    1130.4137931034484,
                    883.4137931034484
                ],
                [
                    1130.4137931034484,
                    888.2413793103449
                ]
            ],
            "shape_type": "polygon",
            "flags": {}
        },
        {
            "label": "daphnia",
            "line_color": null,
            "fill_color": null,
            "points": [
                [
                    1173.8620689655172,
                    886.8620689655172
                ],
                [
                    1178.689655172414,
                    883.4137931034484
                ],
                [
                    1178.0,
                    875.1379310344828
                ],
                [
                    1172.4827586206898,
                    876.5172413793103
                ],
                [
                    1169.0344827586207,
                    880.6551724137931
                ]
            ],
            "shape_type": "polygon",
            "flags": {}
        },
        {
            "label": "daphnia",
            "line_color": null,
            "fill_color": null,
            "points": [
                [
                    1175.9310344827586,
                    904.1034482758621
                ],
                [
                    1184.2068965517242,
                    899.9655172413793
                ],
                [
                    1180.7586206896553,
                    888.9310344827586
                ],
                [
                    1173.8620689655172,
                    892.3793103448277
                ]
            ],
            "shape_type": "polygon",
            "flags": {}
        },
        {
            "label": "daphnia",
            "line_color": null,
            "fill_color": null,
            "points": [
                [
                    1178.0,
                    920.6551724137931
                ],
                [
                    1186.2758620689656,
                    920.6551724137931
                ],
                [
                    1192.4827586206898,
                    912.3793103448277
                ],
                [
                    1181.4482758620688,
                    912.3793103448277
                ]
            ],
            "shape_type": "polygon",
            "flags": {}
        },
        {
            "label": "daphnia",
            "line_color": null,
            "fill_color": null,
            "points": [
                [
                    1178.0,
                    935.8275862068965
                ],
                [
                    1178.0,
                    925.4827586206897
                ],
                [
                    1172.4827586206898,
                    920.6551724137931
                ],
                [
                    1169.0344827586207,
                    929.6206896551724
                ]
            ],
            "shape_type": "polygon",
            "flags": {}
        },
        {
            "label": "daphnia",
            "line_color": null,
            "fill_color": null,
            "points": [
                [
                    1171.7931034482758,
                    923.4137931034484
                ],
                [
                    1164.896551724138,
                    917.8965517241379
                ],
                [
                    1156.6206896551726,
                    921.344827586207
                ],
                [
                    1163.5172413793102,
                    926.1724137931035
                ]
            ],
            "shape_type": "polygon",
            "flags": {}
        },
        {
            "label": "daphnia",
            "line_color": null,
            "fill_color": null,
            "points": [
                [
                    1178.0,
                    950.3103448275863
                ],
                [
                    1179.3793103448274,
                    942.0344827586207
                ],
                [
                    1175.2413793103449,
                    935.1379310344828
                ],
                [
                    1170.4137931034484,
                    942.7241379310344
                ]
            ],
            "shape_type": "polygon",
            "flags": {}
        },
        {
            "label": "daphnia",
            "line_color": null,
            "fill_color": null,
            "points": [
                [
                    646.9655172413793,
                    958.5862068965517
                ],
                [
                    651.7931034482758,
                    957.2068965517242
                ],
                [
                    650.4137931034483,
                    950.3103448275863
                ],
                [
                    643.5172413793103,
                    946.8620689655172
                ],
                [
                    642.8275862068965,
                    953.0689655172414
                ]
            ],
            "shape_type": "polygon",
            "flags": {}
        },
        {
            "label": "daphnia",
            "line_color": null,
            "fill_color": null,
            "points": [
                [
                    693.1724137931035,
                    933.0689655172414
                ],
                [
                    700.7586206896551,
                    927.551724137931
                ],
                [
                    700.7586206896551,
                    922.0344827586207
                ],
                [
                    693.1724137931035,
                    922.7241379310344
                ]
            ],
            "shape_type": "polygon",
            "flags": {}
        },
        {
            "label": "daphnia",
            "line_color": null,
            "fill_color": null,
            "points": [
                [
                    696.6206896551724,
                    959.9655172413793
                ],
                [
                    700.0689655172414,
                    949.6206896551724
                ],
                [
                    695.2413793103449,
                    944.1034482758621
                ],
                [
                    690.4137931034483,
                    948.9310344827586
                ]
            ],
            "shape_type": "polygon",
            "flags": {}
        },
        {
            "label": "daphnia",
            "line_color": null,
            "fill_color": null,
            "points": [
                [
                    693.8620689655172,
                    984.1034482758621
                ],
                [
                    685.5862068965517,
                    979.2758620689656
                ],
                [
                    677.3103448275862,
                    983.4137931034484
                ],
                [
                    685.5862068965517,
                    988.9310344827586
                ]
            ],
            "shape_type": "polygon",
            "flags": {}
        },
        {
            "label": "daphnia",
            "line_color": null,
            "fill_color": null,
            "points": [
                [
                    685.5862068965517,
                    1000.6551724137931
                ],
                [
                    681.448275862069,
                    993.0689655172414
                ],
                [
                    672.4827586206897,
                    992.3793103448277
                ],
                [
                    678.0,
                    1000.6551724137931
                ]
            ],
            "shape_type": "polygon",
            "flags": {}
        },
        {
            "label": "daphnia",
            "line_color": null,
            "fill_color": null,
            "points": [
                [
                    724.2068965517242,
                    959.2758620689656
                ],
                [
                    731.7931034482758,
                    956.5172413793103
                ],
                [
                    725.5862068965517,
                    949.6206896551724
                ],
                [
                    722.8275862068965,
                    951.0
                ]
            ],
            "shape_type": "polygon",
            "flags": {}
        },
        {
            "label": "daphnia",
            "line_color": null,
            "fill_color": null,
            "points": [
                [
                    765.5862068965517,
                    971.0
                ],
                [
                    766.2758620689656,
                    964.7931034482758
                ],
                [
                    762.8275862068965,
                    959.9655172413793
                ],
                [
                    756.6206896551724,
                    962.7241379310344
                ],
                [
                    756.6206896551724,
                    967.551724137931
                ]
            ],
            "shape_type": "polygon",
            "flags": {}
        },
        {
            "label": "daphnia",
            "line_color": null,
            "fill_color": null,
            "points": [
                [
                    789.0344827586207,
                    996.5172413793103
                ],
                [
                    793.8620689655172,
                    988.9310344827586
                ],
                [
                    789.0344827586207,
                    982.7241379310344
                ],
                [
                    783.5172413793103,
                    988.2413793103449
                ]
            ],
            "shape_type": "polygon",
            "flags": {}
        },
        {
            "label": "daphnia",
            "line_color": null,
            "fill_color": null,
            "points": [
                [
                    809.7241379310344,
                    956.5172413793103
                ],
                [
                    803.5172413793103,
                    954.448275862069
                ],
                [
                    802.8275862068965,
                    962.7241379310344
                ]
            ],
            "shape_type": "polygon",
            "flags": {}
        },
        {
            "label": "daphnia",
            "line_color": null,
            "fill_color": null,
            "points": [
                [
                    802.1379310344828,
                    955.1379310344828
                ],
                [
                    798.6896551724138,
                    953.0689655172414
                ],
                [
                    794.551724137931,
                    956.5172413793103
                ],
                [
                    797.3103448275863,
                    965.4827586206897
                ]
            ],
            "shape_type": "polygon",
            "flags": {}
        },
        {
            "label": "daphnia",
            "line_color": null,
            "fill_color": null,
            "points": [
                [
                    872.4827586206897,
                    946.8620689655172
                ],
                [
                    865.5862068965517,
                    938.5862068965517
                ],
                [
                    858.6896551724138,
                    939.9655172413793
                ],
                [
                    861.448275862069,
                    946.8620689655172
                ]
            ],
            "shape_type": "polygon",
            "flags": {}
        },
        {
            "label": "daphnia",
            "line_color": null,
            "fill_color": null,
            "points": [
                [
                    898.0,
                    949.6206896551724
                ],
                [
                    906.2758620689656,
                    949.6206896551724
                ],
                [
                    909.0344827586207,
                    942.0344827586207
                ],
                [
                    902.8275862068965,
                    942.7241379310344
                ]
            ],
            "shape_type": "polygon",
            "flags": {}
        },
        {
            "label": "daphnia",
            "line_color": null,
            "fill_color": null,
            "points": [
                [
                    911.7931034482758,
                    953.0689655172414
                ],
                [
                    918.6896551724137,
                    953.0689655172414
                ],
                [
                    923.5172413793103,
                    946.1724137931035
                ],
                [
                    914.551724137931,
                    945.4827586206897
                ]
            ],
            "shape_type": "polygon",
            "flags": {}
        },
        {
            "label": "daphnia",
            "line_color": null,
            "fill_color": null,
            "points": [
                [
                    913.8620689655172,
                    956.5172413793103
                ],
                [
                    908.344827586207,
                    957.2068965517242
                ],
                [
                    908.344827586207,
                    964.1034482758621
                ],
                [
                    915.2413793103449,
                    963.4137931034484
                ]
            ],
            "shape_type": "polygon",
            "flags": {}
        },
        {
            "label": "daphnia",
            "line_color": null,
            "fill_color": null,
            "points": [
                [
                    964.8965517241379,
                    959.2758620689656
                ],
                [
                    972.4827586206897,
                    955.1379310344828
                ],
                [
                    971.7931034482758,
                    946.1724137931035
                ],
                [
                    963.5172413793103,
                    950.3103448275863
                ]
            ],
            "shape_type": "polygon",
            "flags": {}
        },
        {
            "label": "daphnia",
            "line_color": null,
            "fill_color": null,
            "points": [
                [
                    962.8275862068965,
                    951.0
                ],
                [
                    958.6896551724137,
                    951.0
                ],
                [
                    951.7931034482758,
                    953.7586206896551
                ],
                [
                    960.0689655172414,
                    959.2758620689656
                ],
                [
                    966.9655172413793,
                    959.2758620689656
                ]
            ],
            "shape_type": "polygon",
            "flags": {}
        },
        {
            "label": "daphnia",
            "line_color": null,
            "fill_color": null,
            "points": [
                [
                    1001.448275862069,
                    941.344827586207
                ],
                [
                    1008.344827586207,
                    940.6551724137931
                ],
                [
                    1012.4827586206897,
                    933.0689655172414
                ],
                [
                    1004.2068965517242,
                    931.6896551724137
                ]
            ],
            "shape_type": "polygon",
            "flags": {}
        },
        {
            "label": "daphnia",
            "line_color": null,
            "fill_color": null,
            "points": [
                [
                    1033.8620689655172,
                    946.1724137931035
                ],
                [
                    1031.103448275862,
                    933.7586206896551
                ],
                [
                    1024.896551724138,
                    934.448275862069
                ],
                [
                    1024.896551724138,
                    945.4827586206897
                ]
            ],
            "shape_type": "polygon",
            "flags": {}
        },
        {
            "label": "daphnia",
            "line_color": null,
            "fill_color": null,
            "points": [
                [
                    1037.3103448275863,
                    968.2413793103449
                ],
                [
                    1035.9310344827586,
                    957.8965517241379
                ],
                [
                    1027.655172413793,
                    957.2068965517242
                ],
                [
                    1024.896551724138,
                    960.6551724137931
                ]
            ],
            "shape_type": "polygon",
            "flags": {}
        },
        {
            "label": "daphnia",
            "line_color": null,
            "fill_color": null,
            "points": [
                [
                    1049.0344827586207,
                    963.4137931034484
                ],
                [
                    1057.3103448275863,
                    959.2758620689656
                ],
                [
                    1062.8275862068965,
                    953.7586206896551
                ],
                [
                    1060.7586206896551,
                    951.0
                ],
                [
                    1049.7241379310344,
                    953.7586206896551
                ]
            ],
            "shape_type": "polygon",
            "flags": {}
        },
        {
            "label": "daphnia",
            "line_color": null,
            "fill_color": null,
            "points": [
                [
                    1060.0689655172414,
                    961.344827586207
                ],
                [
                    1069.7241379310344,
                    960.6551724137931
                ],
                [
                    1074.5517241379312,
                    954.448275862069
                ],
                [
                    1071.7931034482758,
                    952.3793103448277
                ],
                [
                    1064.2068965517242,
                    953.7586206896551
                ]
            ],
            "shape_type": "polygon",
            "flags": {}
        },
        {
            "label": "daphnia",
            "line_color": null,
            "fill_color": null,
            "points": [
                [
                    1076.6206896551726,
                    953.0689655172414
                ],
                [
                    1083.5172413793102,
                    952.3793103448277
                ],
                [
                    1089.7241379310344,
                    950.3103448275863
                ],
                [
                    1089.7241379310344,
                    944.1034482758621
                ],
                [
                    1080.0689655172414,
                    945.4827586206897
                ],
                [
                    1075.2413793103449,
                    946.1724137931035
                ]
            ],
            "shape_type": "polygon",
            "flags": {}
        },
        {
            "label": "daphnia",
            "line_color": null,
            "fill_color": null,
            "points": [
                [
                    1084.896551724138,
                    953.0689655172414
                ],
                [
                    1081.4482758620688,
                    961.344827586207
                ],
                [
                    1090.4137931034484,
                    960.6551724137931
                ],
                [
                    1092.4827586206898,
                    950.3103448275863
                ]
            ],
            "shape_type": "polygon",
            "flags": {}
        },
        {
            "label": "daphnia",
            "line_color": null,
            "fill_color": null,
            "points": [
                [
                    1026.2758620689656,
                    885.4827586206897
                ],
                [
                    1035.2413793103449,
                    884.7931034482758
                ],
                [
                    1038.6896551724137,
                    876.5172413793103
                ],
                [
                    1030.4137931034484,
                    877.2068965517242
                ]
            ],
            "shape_type": "polygon",
            "flags": {}
        },
        {
            "label": "daphnia",
            "line_color": null,
            "fill_color": null,
            "points": [
                [
                    1061.4482758620688,
                    917.2068965517242
                ],
                [
                    1071.103448275862,
                    917.2068965517242
                ],
                [
                    1072.4827586206898,
                    930.3103448275863
                ],
                [
                    1064.896551724138,
                    928.9310344827586
                ]
            ],
            "shape_type": "polygon",
            "flags": {}
        },
        {
            "label": "daphnia",
            "line_color": null,
            "fill_color": null,
            "points": [
                [
                    1084.896551724138,
                    939.2758620689656
                ],
                [
                    1089.7241379310344,
                    935.8275862068965
                ],
                [
                    1088.344827586207,
                    927.551724137931
                ],
                [
                    1082.1379310344828,
                    931.6896551724137
                ]
            ],
            "shape_type": "polygon",
            "flags": {}
        },
        {
            "label": "daphnia",
            "line_color": null,
            "fill_color": null,
            "points": [
                [
                    1120.7586206896551,
                    953.0689655172414
                ],
                [
                    1127.655172413793,
                    950.3103448275863
                ],
                [
                    1126.2758620689656,
                    937.8965517241379
                ],
                [
                    1118.0,
                    937.8965517241379
                ]
            ],
            "shape_type": "polygon",
            "flags": {}
        },
        {
            "label": "daphnia",
            "line_color": null,
            "fill_color": null,
            "points": [
                [
                    1126.2758620689656,
                    962.0344827586207
                ],
                [
                    1134.5517241379312,
                    956.5172413793103
                ],
                [
                    1133.8620689655172,
                    951.0
                ],
                [
                    1127.655172413793,
                    950.3103448275863
                ]
            ],
            "shape_type": "polygon",
            "flags": {}
        },
        {
            "label": "daphnia",
            "line_color": null,
            "fill_color": null,
            "points": [
                [
                    1149.0344827586207,
                    964.1034482758621
                ],
                [
                    1142.1379310344828,
                    955.1379310344828
                ],
                [
                    1137.3103448275863,
                    959.9655172413793
                ],
                [
                    1137.3103448275863,
                    966.1724137931035
                ]
            ],
            "shape_type": "polygon",
            "flags": {}
        },
        {
            "label": "daphnia",
            "line_color": null,
            "fill_color": null,
            "points": [
                [
                    1149.7241379310344,
                    952.3793103448277
                ],
                [
                    1158.689655172414,
                    955.1379310344828
                ],
                [
                    1154.5517241379312,
                    941.344827586207
                ],
                [
                    1149.0344827586207,
                    940.6551724137931
                ]
            ],
            "shape_type": "polygon",
            "flags": {}
        },
        {
            "label": "daphnia",
            "line_color": null,
            "fill_color": null,
            "points": [
                [
                    1186.9655172413793,
                    971.0
                ],
                [
                    1191.7931034482758,
                    967.551724137931
                ],
                [
                    1193.1724137931035,
                    961.344827586207
                ],
                [
                    1185.5862068965516,
                    962.0344827586207
                ]
            ],
            "shape_type": "polygon",
            "flags": {}
        },
        {
            "label": "daphnia",
            "line_color": null,
            "fill_color": null,
            "points": [
                [
                    1189.7241379310344,
                    959.2758620689656
                ],
                [
                    1184.2068965517242,
                    950.3103448275863
                ],
                [
                    1178.0,
                    950.3103448275863
                ],
                [
                    1179.3793103448274,
                    956.5172413793103
                ],
                [
                    1182.8275862068965,
                    962.0344827586207
                ]
            ],
            "shape_type": "polygon",
            "flags": {}
        },
        {
            "label": "daphnia",
            "line_color": null,
            "fill_color": null,
            "points": [
                [
                    1175.9310344827586,
                    950.3103448275863
                ],
                [
                    1165.5862068965516,
                    958.5862068965517
                ],
                [
                    1166.9655172413793,
                    963.4137931034484
                ],
                [
                    1174.5517241379312,
                    957.2068965517242
                ]
            ],
            "shape_type": "polygon",
            "flags": {}
        },
        {
            "label": "daphnia",
            "line_color": null,
            "fill_color": null,
            "points": [
                [
                    1180.7586206896553,
                    959.9655172413793
                ],
                [
                    1175.2413793103449,
                    964.1034482758621
                ],
                [
                    1174.5517241379312,
                    971.6896551724137
                ],
                [
                    1183.5172413793102,
                    967.551724137931
                ]
            ],
            "shape_type": "polygon",
            "flags": {}
        },
        {
            "label": "daphnia",
            "line_color": null,
            "fill_color": null,
            "points": [
                [
                    1160.7586206896553,
                    988.9310344827586
                ],
                [
                    1164.2068965517242,
                    985.4827586206897
                ],
                [
                    1175.9310344827586,
                    986.8620689655172
                ],
                [
                    1177.3103448275863,
                    992.3793103448277
                ],
                [
                    1168.344827586207,
                    995.1379310344828
                ]
            ],
            "shape_type": "polygon",
            "flags": {}
        }
    ],
    "lineColor": [
        0,
        255,
        0,
        128
    ],
    "fillColor": [
        255,
        0,
        0,
        128
    ],
    "imagePath": "video_Tank14_Male_0.0001.json",
    "imageHeight": 1024,
    "imageWidth": 1280
}